<svg xmlns="http://www.w3.org/2000/svg" xmlns:xlink="http://www.w3.org/1999/xlink"><symbol id="arrow-left" viewBox="0 0 24 24"><line x1="24" y1="12" x2="5" y2="12"/><polyline points="12 19 5 12 12 5"/></symbol><symbol id="arrow-up-left" viewBox="0 0 24 24"><line x1="17" y1="17" x2="7" y2="7"/><polyline points="7 17 7 7 17 7"/></symbol><symbol id="article-bubbles" viewBox="0 0 91 91"><path d="M20.5 50C31.822 50 41 59.178 41 70.5S31.822 91 20.5 91 0 81.822 0 70.5 9.178 50 20.5 50zm50 0C81.822 50 91 59.178 91 70.5S81.822 91 70.5 91 50 81.822 50 70.5 59.178 50 70.5 50zm-50-50C31.822 0 41 9.178 41 20.5S31.822 41 20.5 41 0 31.822 0 20.5 9.178 0 20.5 0zm50 0C81.822 0 91 9.178 91 20.5S81.822 41 70.5 41 50 31.822 50 20.5 59.178 0 70.5 0z" fill="#D66442" fill-rule="evenodd" opacity=".3"/></symbol><symbol id="bookmark" viewBox="0 0 24 24"><path d="M19 21l-7-5-7 5V5a2 2 0 0 1 2-2h10a2 2 0 0 1 2 2z"/></symbol><symbol id="calendar" viewBox="0 0 21 18">
  <g fill="currentColor" fill-rule="nonzero">
    <path d="M.615 14H16.71a.654.654 0 00.394-.13c.155-.118 3.681-2.89 3.896-8.87H3.715C3.5 10.429.253 12.98.219 13.006a.532.532 0 00-.181.624c.088.222.318.37.577.37zM20.394 1.333h-3.028V.667c0-.374-.267-.667-.606-.667-.34 0-.606.293-.606.667v.666h-3.068V.667c0-.374-.267-.667-.606-.667-.34 0-.606.293-.606.667v.666H8.846V.667C8.846.293 8.579 0 8.24 0c-.34 0-.606.293-.606.667v.666H4.606C4.266 1.333 4 1.627 4 2v2h17V2c0-.373-.267-.667-.606-.667z"/>
    <path d="M17.926 14.922a1.743 1.743 0 01-1.166.457H4v1.966c0 .362.27.655.606.655h15.788c.335 0 .606-.293.606-.655V10c-1.168 3.1-2.797 4.671-3.074 4.922z"/>
  </g>
</symbol><symbol id="check" viewBox="0 0 24 24"><polyline points="20 6 9 17 4 12"/></symbol><symbol id="chevron-down" viewBox="0 0 24 24"><polyline points="6 9 12 15 18 9"/></symbol><symbol id="chevron-left" viewBox="0 0 24 24"><polyline points="15 18 9 12 15 6"/></symbol><symbol id="chevron-right" viewBox="0 0 24 24"><polyline points="9 18 15 12 9 6"/></symbol><symbol id="chevron-up" viewBox="0 0 24 24"><polyline points="18 15 12 9 6 15"/></symbol><symbol id="contact" viewBox="0 0 32 31">
  <g fill="none" fill-rule="nonzero">
    <path fill="#F4B100" d="M31.245.846V17.7c0 .224-.09.44-.25.599a.858.858 0 01-.606.246H9.118a.743.743 0 01-.155-.016.85.85 0 01-.701-.83V.847a.808.808 0 01.215-.557.814.814 0 01.304-.218.595.595 0 01.149-.05A.71.71 0 019.118 0h21.271c.227 0 .445.088.606.247.16.159.25.374.25.599z"/>
    <path fill="#FAC63C" d="M31.245.846v.741L23.247 8.34l-1.794 1.517a1.295 1.295 0 01-1.644 0L18.015 8.34 8.477.29A.814.814 0 018.781.07a.595.595 0 01.149-.05.706.706 0 01.188-.02h21.271c.227-.002.445.087.606.246.16.159.25.374.25.599z"/>
    <path fill="#3C9DD2" d="M24.572 27.547l-1.225 2.013a2.19 2.19 0 01-.497.196c-2.175.59-6.966.71-14.643-6.878C.529 15.29.65 10.555 1.247 8.406c.045-.169.11-.332.193-.486l2.042-1.216a1.092 1.092 0 011.463.327L6.832 9.83l1.585 2.345c.182.266.234.598.143.906a1.113 1.113 0 01-.375.54l-1.176.905-.778.595a1.064 1.064 0 00-.287 1.363c.574 1.015 1.115 2.215 3.803 4.872 2.688 2.656 3.902 3.19 4.929 3.758a1.093 1.093 0 001.38-.284l.601-.769.916-1.162c.14-.175.331-.304.547-.37.311-.09.647-.039.916.141l2.45 1.615 2.755 1.816c.484.317.63.954.33 1.446z"/>
    <g fill="#000">
      <path d="M30.64 0H8.287c-.75 0-1.359.621-1.36 1.387v6.288L5.905 6.11a1.562 1.562 0 00-2.134-.49l-2.103 1.29a3.139 3.139 0 00-1.41 1.864c-.766 2.849-.197 7.756 6.867 14.961C12.742 29.459 16.93 31 19.817 31a7.32 7.32 0 001.979-.263 3.1 3.1 0 001.829-1.436l1.262-2.147a1.631 1.631 0 00-.48-2.173l-5.035-3.423a1.569 1.569 0 00-2.128.352l-1.466 1.922a.504.504 0 01-.653.14l-.279-.156c-.918-.51-2.06-1.146-4.368-3.5a38.28 38.28 0 01-.688-.72h20.85c.749 0 1.357-.617 1.36-1.38V1.386C32 .621 31.39.001 30.64 0zM14.336 24.771l.27.152a1.552 1.552 0 002.015-.423l1.466-1.922a.512.512 0 01.693-.115l5.036 3.423a.532.532 0 01.156.707l-1.263 2.147c-.264.461-.692.8-1.195.947-2.522.707-6.935.108-13.634-6.723C1.182 16.133.598 11.632 1.29 9.063c.143-.513.475-.95.927-1.22l2.105-1.287a.51.51 0 01.694.159l3.358 5.135c.149.23.1.537-.113.707l-1.885 1.496a1.623 1.623 0 00-.415 2.053l.15.276c.533.998 1.196 2.24 3.613 4.704 2.417 2.464 3.634 3.141 4.612 3.685zm16.597-6.556a.294.294 0 01-.293.294H8.827a13.734 13.734 0 01-1.78-2.646l-.154-.286a.526.526 0 01.138-.665l1.885-1.495c.652-.521.803-1.465.346-2.17l-1.268-1.94v-7.92c0-.08.03-.156.085-.212a.287.287 0 01.208-.087H30.64c.078 0 .153.03.208.087a.3.3 0 01.085.212v16.828z"/>
      <path d="M29.55 2.623a.527.527 0 00-.748-.104l-8.915 6.895a.708.708 0 01-.847 0L10.128 2.52a.527.527 0 00-.748.105.551.551 0 00.103.762l8.914 6.895c.634.478 1.5.478 2.134 0l8.916-6.895a.552.552 0 00.102-.763zM14.91 10.327l-5.464 5.968c-.2.22-.189.564.027.769a.526.526 0 00.754-.027l5.464-5.97a.552.552 0 00-.047-.747.526.526 0 00-.733.007zM24.051 10.327a.526.526 0 00-.754-.027.552.552 0 00-.026.769l5.463 5.968c.201.22.539.232.754.027a.552.552 0 00.027-.77l-5.464-5.967z"/>
    </g>
  </g>
</symbol><symbol id="donation" viewBox="0 0 34 35">
  <g fill="none" fill-rule="nonzero">
    <path fill="#C98964" d="M19 25c.11-.346.011-.172 2.711-3.517a1.244 1.244 0 011.84-.142c.416.387.548.995.375 1.52-.245.049.244-.147-4.926 2.139z"/>
    <path fill="#C98964" d="M20.428 23.301C19.142 24.706 19.106 24.704 19 25c5.169-2.015 4.68-1.843 4.926-1.885.138-.371.081-.788-.16-1.115l-3.338 1.301z"/>
    <path fill="#FAE1C3" d="M11.65 28.893a2.717 2.717 0 00-1.384.597L9.65 30 6 25.945a19.195 19.195 0 012.905-1.977c1.154-.637 1.618-.702 4.076-.955.805-.067 1.205.1 4.51 1 1.193.324.93 1.427.93 1.427l5.355-2.117c.105-.05 1.348-.715 2.036.361.603 1.015-.418 1.75-.623 1.878l-6.822 3.745c-1.011.631-2.065.503-2.528.4-3.072-.836-3.174-.945-4.188-.814z"/>
    <path fill="#E59770" d="M6.193 25c-.409.282-.807.578-1.193.887L8.791 30l.64-.517a2.77 2.77 0 01.569-.354L6.193 25z"/>
    <path fill="#FFC850" d="M20.997 17.638a3.507 3.507 0 00-.107-1.013A3.502 3.502 0 0017.5 14c-3.267 0-4.734 4.086-2.256 6.176.61.513 1.4.824 2.256.824.87 0 1.743-.364 2.255-.824a3.492 3.492 0 001.242-2.538z"/>
    <path fill="#F9B938" d="M16.434 20.176c-2.178-1.898-1.244-5.585 1.566-6.118a3.298 3.298 0 00-.615-.058c-3.16 0-4.578 4.087-2.182 6.176.651.529 1.332.824 2.182.824.228 0 .422-.022.615-.059-.633-.119-1.075-.366-1.566-.765z"/>
    <path fill="#D66442" d="M9.873 30.837l-4.488-5.641a.493.493 0 00-.734-.059L1.169 28.4a.561.561 0 00-.048.75l4.589 5.676c.163.201.448.236.637.063l.004-.004 3.469-3.251a.599.599 0 00.053-.797z"/>
    <path fill="#F9B938" d="M.985 27l-.79.621a.48.48 0 00-.055.725l5.29 5.486a.566.566 0 00.734.06c.002 0 .004-.002.005-.003L7 33.236.985 27z"/>
    <path fill="#C98964" d="M10.712 11.896L15 10a1.421 1.421 0 01-.248.465l-2.463 3.052a1.244 1.244 0 01-1.84.142 1.465 1.465 0 01-.375-1.52c.334-.066.593-.22.638-.243z"/>
    <path fill="#DD855F" d="M10.712 12.81l2.922-1.155 1.118-1.239c.113-.126.195-.267.248-.416l-4.288 1.696c-.045.021-.305.158-.639.217A1.21 1.21 0 0010.204 13c.27-.066.47-.17.508-.19z"/>
    <path fill="#FAE0C0" d="M23.35 6.107a2.717 2.717 0 001.384-.597L25.35 5 29 9.055a19.195 19.195 0 01-2.905 1.977c-1.154.637-1.618.702-4.076.955-.805.067-1.205-.1-4.51-1-1.193-.324-.93-1.427-.93-1.427l-5.355 2.117c-.105.05-1.348.715-2.036-.361-.603-1.015.418-1.75.623-1.878l6.822-3.745c1.011-.631 2.065-.503 2.528-.4l2.649.72c.621.17 1.035.159 1.54.094z"/>
    <path fill="#E59770" d="M23.112 6.292c.62.171 1.032.16 1.534.094.5-.065.969-.268 1.354-.583L25.288 5l-.614.515c-.39.328-.869.537-1.379.604-.227.03-.436.048-.654.043l.471.13z"/>
    <path fill="#C98964" d="M10.538 11.651c-.6-1.025.417-1.768.62-1.898l6.797-3.785a3.222 3.222 0 011.83-.49l-.662-.182c-.462-.104-1.512-.234-2.518.404h-.001L9.808 9.486c-.204.13-1.221.872-.62 1.898.445.706 1.123.67 1.573.544a1.486 1.486 0 01-.223-.277z"/>
    <path fill="#3C9DD2" d="M24.127 4.163l4.488 5.641a.493.493 0 00.734.059L32.831 6.6a.561.561 0 00.048-.75L28.289.174c-.162-.201-.447-.236-.636-.063l-.004.004-3.469 3.251a.599.599 0 00-.053.797z"/>
    <path fill="#000" d="M33.696 5.733L29.216.349a1.042 1.042 0 00-1.471-.084l-3.571 3.178a1.103 1.103 0 00-.108 1.524l.14.167-.231.205c-.611.544-1.531.707-2.46.435-.02-.005-2.663-.779-2.683-.783-.481-.116-1.729-.298-2.92.494-.019.011-6.842 4.038-6.86 4.05-1.86 1.248-.964 3.399.453 3.633.062 1.703 2.147 2.487 3.25 1.172 2.734-3.256 2.644-3.114 2.787-3.412l.105-.045c.136.527.509 1.052 1.27 1.275 3.195.934 3.836 1.196 4.722 1.095 2.477-.274 3.045-.357 4.292-1.098a19.669 19.669 0 002.602-1.853l.152.182c.38.452 1.041.501 1.479.111l3.398-3.025a1.335 1.335 0 00.134-1.837zm-20.14 6.039l-1.575 1.877c-.512.61-1.479.205-1.45-.586l3.026-1.291zm11.864-.532c-1.061.63-1.418.69-3.88.961-.674.075-1.209-.143-4.343-1.06-.402-.117-.508-.34-.552-.496-.06-.214-.021-.418-.022-.418a.792.792 0 01.125-.287c.077-.106.192-.21.467-.17.969.137 3.277.455 3.3.459a.515.515 0 00.576-.454.525.525 0 00-.44-.593c-.023-.004-2.33-.321-3.297-.459-.905-.128-1.439.448-1.65.993l-.747.318s-4.551 1.958-5.005 2.093c-.824.119-1.388-.987-.353-1.699l6.834-4.033h.002a.554.554 0 00.024-.016c.856-.575 1.766-.448 2.13-.362l2.646.774c1.262.369 2.537.125 3.41-.652l.23-.205 2.989 3.568a18.635 18.635 0 01-2.444 1.738zm7.473-4.47c-.028.024-3.408 3.052-3.432 3.023-.024-.028-4.645-5.526-4.618-5.55l3.57-3.179a.036.036 0 01.045-.003l4.46 5.36a.254.254 0 01-.025.349zM25.5 21.835c-.061-1.706-2.138-2.491-3.238-1.174l-2.52 3.018a1.905 1.905 0 00-.256.4l-.104.045c-.136-.528-.507-1.054-1.265-1.277-3.347-.984-3.783-1.181-4.695-1.098h-.01c-2.467.275-3.032.359-4.275 1.1a19.594 19.594 0 00-2.592 1.857l-.152-.182a1.02 1.02 0 00-1.473-.112l-3.57 3.196c-.205.183-.329.44-.348.72-.018.28.07.552.249.763l4.705 5.56a.959.959 0 001.375.108l3.557-3.183a1.11 1.11 0 00.108-1.527l-.14-.167.23-.205c.609-.545 1.525-.709 2.45-.436l2.585.76a.508.508 0 00.63-.365.532.532 0 00-.351-.653l-2.585-.76c-1.257-.37-2.527-.126-3.396.653l-.23.205-2.977-3.575c.779-.655 1.596-1.24 2.434-1.74 1.058-.631 1.413-.69 3.87-.963.694-.063 1.077.108 4.322 1.062.401.118.506.34.55.497.06.214.021.42.021.42a.797.797 0 01-.124.286c-.076.106-.191.21-.464.17-.966-.137-3.266-.456-3.289-.459a.514.514 0 00-.573.454.526.526 0 00.438.595c.023.003 2.32.321 3.284.459.087.012.17.018.25.018.751 0 1.204-.52 1.393-1.012l.745-.319s4.386-1.872 4.44-1.901c.292-.156.473-.173.547-.195.82-.12 1.383.988.35 1.701-7.17 4.255-7.008 4.165-7.008 4.165a.539.539 0 00-.203.717.501.501 0 00.692.211l7.066-4.198c1.85-1.25.96-3.404-.453-3.639zM6.7 33.925l-4.675-5.523 3.563-3.19c.002-.001.007-.006.016-.005.01 0 .015.006.016.008l4.603 5.526c.024.028-3.495 3.16-3.522 3.184zm16.334-12.571c.502-.601 1.474-.22 1.446.587l-3.016 1.293 1.57-1.88z"/>
    <path fill="#000" d="M19.993 16.328c.092.28.373.424.627.322.253-.102.384-.412.292-.692-.586-1.77-2.126-2.958-3.833-2.958C14.83 13 13 15.019 13 17.5c0 2.505 1.85 4.5 4.08 4.5 1.764 0 3.367-1.268 3.898-3.181.08-.285-.066-.587-.324-.674-.258-.087-.532.073-.61.358-.402 1.446-1.617 2.418-2.965 2.418-1.697 0-3.1-1.52-3.1-3.421 0-1.886 1.39-3.42 3.1-3.42 1.298-.001 2.469.903 2.914 2.248z"/>
  </g>
</symbol><symbol id="download" viewBox="0 0 24 24"><path d="M21 15v4a2 2 0 0 1-2 2H5a2 2 0 0 1-2-2v-4"/><polyline points="7 10 12 15 17 10"/><line x1="12" y1="15" x2="12" y2="3"/></symbol><symbol id="edit" viewBox="0 0 24 24"><path d="M11 4H4a2 2 0 0 0-2 2v14a2 2 0 0 0 2 2h14a2 2 0 0 0 2-2v-7"/><path d="M18.5 2.5a2.121 2.121 0 0 1 3 3L12 15l-4 1 1-4 9.5-9.5z"/></symbol><symbol id="folder" viewBox="0 0 22 16">
  <g fill="currentColor" fill-rule="nonzero">
    <path d="M17.591 5.626c-.008-.9-.724-1.625-1.605-1.626H8.79l-7.196.021C.71 4.03-.003 4.766.001 5.67v.043l1.397 8.673c.014.895.728 1.614 1.605 1.615h14.391c.886-.001 1.604-.734 1.605-1.639v-.043l-1.408-8.692z"/>
    <path d="M20.39 1.83h-7.138L11.839.097a.26.26 0 00-.21-.098h-5.76c-.885.001-1.606.73-1.62 1.637L4 3.187h.536l12.058-.002c1.269.005 2.31 1.031 2.367 2.331l.964 6.003.24 1.481c.088-.205.135-.425.138-.65L22 3.545v-.052c0-.913-.718-1.655-1.609-1.663z"/>
  </g>
</symbol><symbol id="graduation-hat" viewBox="0 0 35 25"><g fill="currentColor" fill-rule="nonzero"><path d="M17.857 11.143c1.064 0 2.075-.122 2.847-.342L33.23 7.22C34.692 6.801 35 6.092 35 5.571c0-.52-.307-1.23-1.77-1.648L20.704.342C19.932.122 18.921 0 17.857 0s-2.075.121-2.847.342L2.485 3.923C1.021 4.342.715 5.05.715 5.571c0 .521.306 1.23 1.77 1.649L15.01 10.8c.772.221 1.783.343 2.847.343z"/><path d="M17.857 13.148c-1.225 0-2.365-.168-3.295-.484l-6.99-2.378v3.096c0 1.025.587 2.47 3.39 3.53 1.856.702 4.305 1.088 6.895 1.088s5.04-.386 6.895-1.088c2.802-1.06 3.39-2.504 3.39-3.53v-3.096l-6.99 2.378c-.93.316-2.07.484-3.295.484zm14.065 1.714V9l-1.894.585v5.277C28.85 15.27 28 16.417 28 17.764v4.174C28 23.627 29.334 25 30.975 25c1.64 0 2.975-1.373 2.975-3.062v-4.174c0-1.347-.85-2.494-2.028-2.902z"/></g></symbol><symbol id="instagram" viewBox="0 0 23 23"><path d="M19.63 0A3.373 3.373 0 0123 3.37v16.26A3.374 3.374 0 0119.63 23H3.37A3.373 3.373 0 010 19.63V3.37A3.373 3.373 0 013.37 0zM11.5 5.308c-3.415 0-6.192 2.777-6.192 6.192s2.777 6.192 6.192 6.192 6.192-2.777 6.192-6.192-2.777-6.192-6.192-6.192zM11.5 7c2.481 0 4.5 2.019 4.5 4.5S13.981 16 11.5 16 7 13.981 7 11.5 9.019 7 11.5 7zm6.635-4.346c-1.22 0-2.212.992-2.212 2.211 0 1.22.992 2.212 2.212 2.212a2.214 2.214 0 002.211-2.212 2.214 2.214 0 00-2.211-2.211z" fill="#767676" fill-rule="nonzero"/></symbol><symbol id="list" viewBox="0 0 28 27"><path d="M5.833 0H1.167C.523 0 0 .523 0 1.167v4.666C0 6.477.523 7 1.167 7h4.666C6.477 7 7 6.477 7 5.833V1.167C7 .523 6.477 0 5.833 0zm20.98 0H10.188C9.531 0 9 .523 9 1.167v4.666C9 6.477 9.532 7 10.188 7h16.624C27.468 7 28 6.477 28 5.833V1.167C28 .523 27.468 0 26.812 0zM5.833 10H1.167C.523 10 0 10.523 0 11.167v4.666C0 16.477.523 17 1.167 17h4.666C6.477 17 7 16.477 7 15.833v-4.666C7 10.523 6.477 10 5.833 10zm20.98 0H10.188C9.531 10 9 10.523 9 11.167v4.666C9 16.477 9.532 17 10.188 17h16.624c.656 0 1.188-.523 1.188-1.167v-4.666c0-.644-.532-1.167-1.188-1.167zM5.833 20H1.167C.523 20 0 20.523 0 21.167v4.666C0 26.477.523 27 1.167 27h4.666C6.477 27 7 26.477 7 25.833v-4.666C7 20.523 6.477 20 5.833 20zm20.98 0H10.188C9.531 20 9 20.523 9 21.167v4.666C9 26.477 9.532 27 10.188 27h16.624c.656 0 1.188-.523 1.188-1.167v-4.666c0-.644-.532-1.167-1.188-1.167z" fill="currentColor" fill-rule="nonzero"/></symbol><symbol id="message" viewBox="0 0 101 100">
  <g fill="#EC6036" fill-rule="nonzero" opacity=".3">
    <path d="M18.96 35v9.017c0 9.217 8.423 16.715 18 16.715h32.913l7.048 7.673.038.04a2.991 2.991 0 002.041.928v6.38c0 8.881-7.268 16.106-16.201 16.106H29.738l-5.828 7.042a3.002 3.002 0 01-4.417.225l-8.031-7.91C4.68 89.241 0 83.068 0 75.982V51.106C0 42.225 7.268 35 16.201 35h2.759z"/>
    <path d="M38.201 0H84.8C93.732 0 101 7.18 101 16.004v24.718c0 7.042-4.68 13.175-11.462 15.138l-8.039 7.867a3 3 0 01-4.403-.225l-5.834-7.003h-33.06C29.268 56.499 22 49.319 22 40.495V16.004C22 7.179 29.268 0 38.201 0z"/>
  </g>
</symbol><symbol id="play" viewBox="0 0 24 24"><polygon points="5 3 19 12 5 21 5 3"/></symbol><symbol id="quote" viewBox="0 0 93 79"><path d="M60.75 79h21.5c2.986 0 5.524-1.047 7.615-3.142C91.955 73.763 93 71.22 93 68.227V46.682c0-2.993-1.045-5.536-3.135-7.63-2.09-2.095-4.63-3.142-7.615-3.142H69.708c-1.492 0-2.762-.524-3.807-1.571s-1.568-2.32-1.568-3.816v-1.795c0-3.965 1.4-7.35 4.2-10.155 2.799-2.805 6.177-4.208 10.134-4.208h3.583c.97 0 1.81-.356 2.52-1.066.709-.71 1.064-1.552 1.064-2.525V3.591c0-.97-.355-1.814-1.064-2.524C84.06.357 83.221 0 82.25 0h-3.583c-3.883 0-7.587.759-11.115 2.273-3.527 1.515-6.578 3.563-9.154 6.144-2.575 2.582-4.619 5.639-6.13 9.174C50.755 21.126 50 24.838 50 28.728v39.5c0 2.993 1.045 5.536 3.135 7.63C55.225 77.953 57.764 79 60.75 79zM3.136 75.858C5.226 77.953 7.764 79 10.751 79h21.5c2.986 0 5.524-1.047 7.614-3.142C41.955 73.763 43 71.22 43 68.227V46.682c0-2.993-1.045-5.536-3.135-7.63-2.09-2.095-4.628-3.142-7.614-3.142H19.709c-1.493 0-2.763-.524-3.808-1.571-1.044-1.048-1.568-2.32-1.568-3.816v-1.795c0-3.965 1.4-7.35 4.2-10.155 2.8-2.805 6.176-4.208 10.134-4.208h3.584c.97 0 1.81-.356 2.52-1.066.709-.71 1.064-1.552 1.064-2.525V3.591c0-.97-.355-1.814-1.065-2.524C34.062.357 33.221 0 32.25 0h-3.583a27.89 27.89 0 00-11.114 2.273c-3.527 1.515-6.578 3.563-9.154 6.144-2.576 2.582-4.62 5.64-6.131 9.174A28.024 28.024 0 000 28.728v39.5c0 2.993 1.045 5.536 3.136 7.63z" fill="#D66442" fill-rule="nonzero" opacity=".3"/></symbol><symbol id="scroll-down" viewBox="0 0 14 38">
  <g fill="none" fill-rule="evenodd" stroke="#D66442" stroke-linecap="round" stroke-width="4">
    <path d="M7 2v9m-5 4.961l5 3 5-3"/>
    <path d="M2 23.961l5 3 5-3" opacity=".6"/>
    <path d="M2 31.961l5 3 5-3" opacity=".3"/>
  </g>
</symbol><symbol id="search" viewBox="0 0 24 24"><circle cx="11" cy="11" r="8"/><line x1="21" y1="21" x2="16.65" y2="16.65"/></symbol><symbol id="social-media" viewBox="0 0 31 31">
  <g fill="none" fill-rule="nonzero">
    <path fill="#8892A0" d="M21 31H11a3 3 0 01-3-3V4a3 3 0 013-3h10a3 3 0 013 3v24a3 3 0 01-3 3z"/>
    <path fill="#B8BEC6" d="M10.103 1C8.39 1 7 2.306 7 3.918V22c8.566-1.775 15-9.304 15-18.325 0-.8-.056-1.587-.155-2.36-.42-.2-.893-.315-1.397-.315H10.103z"/>
    <path fill="#3C9DD2" d="M8 4h16v21H8z"/>
    <path fill="#FFF" d="M10 19H1a1 1 0 00-1 1v6a1 1 0 001 1h9a1 1 0 001-1v-2.5l2-1-2-1V20a1 1 0 00-1-1z"/>
    <path fill="#D66442" d="M28 18h-5a2 2 0 01-2-2v-5a2 2 0 012-2h5a2 2 0 012 2v5a2 2 0 01-2 2z"/>
    <circle cx="16" cy="28" r="1" fill="#C7E2FC"/>
    <path fill="#FAC63C" d="M0 6h10v7H0z"/>
    <path fill="#FAC63C" d="M0 6l5 4 5-4z"/>
    <circle cx="26" cy="14" r="2" fill="#FFF"/>
    <g fill="#000">
      <path d="M15.5 26c-.827 0-1.5.673-1.5 1.5s.673 1.5 1.5 1.5 1.5-.673 1.5-1.5-.673-1.5-1.5-1.5zm0 2a.5.5 0 11.002-1.002A.5.5 0 0115.5 28z"/>
      <path d="M28.5 8.5H24v-5C24 1.57 22.43 0 20.5 0h-10C8.57 0 7 1.57 7 3.5V5H.5a.5.5 0 00-.5.5v7a.5.5 0 00.5.5H7v5H1.5c-.827 0-1.5.673-1.5 1.5v6c0 .827.673 1.5 1.5 1.5H7v.5c0 1.93 1.57 3.5 3.5 3.5h10c1.93 0 3.5-1.57 3.5-3.5v-9h4.5c1.378 0 2.5-1.122 2.5-2.5v-5c0-1.379-1.122-2.5-2.5-2.5zM10.5 1h10c1.207 0 2.217.86 2.45 2H8.05c.233-1.14 1.243-2 2.45-2zM9.075 6L5.5 8.86 1.925 6h7.15zM1 6.54l4.188 3.35a.5.5 0 00.625 0L10 6.54V12H1V6.54zM8 13h2.5a.5.5 0 00.5-.5v-7a.5.5 0 00-.5-.5H8V4h15v4.55c-1.14.233-2 1.242-2 2.45v5c0 1.207.86 2.217 2 2.45V24H12v-.691l1.723-.862a.5.5 0 000-.895L12 20.691V19.5c0-.827-.673-1.5-1.5-1.5H8v-5zM1 25.5v-6a.5.5 0 01.5-.5h9a.5.5 0 01.5.5V21a.5.5 0 00.277.448l1.105.552-1.105.552A.5.5 0 0011 23v2.5a.5.5 0 01-.5.5h-9a.5.5 0 01-.5-.5zM20.5 30h-10A2.503 2.503 0 018 27.5V27h2.5c.827 0 1.5-.673 1.5-1.5V25h11v2.5c0 1.378-1.122 2.5-2.5 2.5zM30 16c0 .827-.673 1.5-1.5 1.5h-5c-.827 0-1.5-.673-1.5-1.5v-5c0-.827.673-1.5 1.5-1.5h5c.827 0 1.5.673 1.5 1.5v5z"/>
      <path d="M26 11.5a2.503 2.503 0 00-2.5 2.5c0 1.379 1.122 2.5 2.5 2.5s2.5-1.121 2.5-2.5-1.122-2.5-2.5-2.5zm0 4c-.827 0-1.5-.673-1.5-1.5s.673-1.5 1.5-1.5 1.5.673 1.5 1.5-.673 1.5-1.5 1.5zM28 10.5h1v1h-1zM2 20h8v1H2zM3 22h6v1H3zM2 24h8v1H2z"/>
    </g>
  </g>
</symbol><symbol id="star" viewBox="0 0 24 24"><polygon points="12 2 15.09 8.26 22 9.27 17 14.14 18.18 21.02 12 17.77 5.82 21.02 7 14.14 2 9.27 8.91 8.26 12 2"/></symbol><symbol id="telegram" viewBox="0 0 26 23"><path d="M.46 11.028L6.45 13.3l2.319 7.577a.701.701 0 001.12.343l3.34-2.766a.984.984 0 011.214-.035l6.023 4.443a.702.702 0 001.106-.433L25.985.865c.113-.557-.425-1.02-.946-.816L.452 9.686c-.607.238-.601 1.11.007 1.342zm7.935 1.063l11.709-7.327c.21-.131.427.158.246.328l-9.663 9.126c-.34.321-.559.751-.62 1.218l-.33 2.478c-.043.331-.5.364-.59.044l-1.267-4.52a1.207 1.207 0 01.515-1.347z" fill="#767676" fill-rule="nonzero"/></symbol><symbol id="time" viewBox="0 0 23 26"><path d="M20.365 7.387l1.766-1.746a1.073 1.073 0 000-1.532 1.1 1.1 0 00-1.548 0l-1.767 1.747a11.506 11.506 0 00-6.22-2.55v-1.14h2.19c.605 0 1.095-.485 1.095-1.083S15.39 0 14.786 0H8.214c-.605 0-1.095.485-1.095 1.083s.49 1.084 1.095 1.084h2.19v1.138C4.577 3.852 0 8.72 0 14.625 0 20.897 5.159 26 11.5 26S23 20.897 23 14.625c0-2.747-.99-5.27-2.635-7.238zM15.52 19.774c-.216.153-.47.226-.719.226-.365 0-.725-.156-.961-.452l-3.6-4.522a1.084 1.084 0 01-.24-.678V8.13c0-.626.537-1.131 1.2-1.131.662 0 1.2.505 1.2 1.13v5.841l3.36 4.22c.397.5.29 1.209-.24 1.583z" fill="currentColor" fill-rule="nonzero"/></symbol><symbol id="trash" viewBox="0 0 24 24"><polyline points="3 6 5 6 21 6"/><path d="M19 6v14a2 2 0 0 1-2 2H7a2 2 0 0 1-2-2V6m3 0V4a2 2 0 0 1 2-2h4a2 2 0 0 1 2 2v2"/></symbol><symbol id="user" viewBox="0 0 18 19">
  <path fill="currentColor" fill-rule="nonzero" d="M9 0C6.243 0 4 2.243 4 5s2.243 5 5 5 5-2.243 5-5-2.243-5-5-5zm6.719 13.196A7.936 7.936 0 0010.2 11H7.8c-2.08 0-4.04.78-5.519 2.196C.811 14.606 0 16.466 0 18.434c0 .313.269.566.6.566h16.8c.331 0 .6-.253.6-.566 0-1.969-.81-3.829-2.281-5.238z"/>
</symbol><symbol id="visibility" viewBox="0 0 22 16">
  <g fill="currentColor" fill-rule="nonzero">
    <path d="M11 5C9.345 5 8 6.345 8 8s1.345 3 3 3 3-1.345 3-3-1.345-3-3-3z"/>
    <path d="M11 0C6 0 1.73 3.317 0 8c1.73 4.683 6 8 11 8 5.005 0 9.27-3.317 11-8-1.73-4.683-5.995-8-11-8zm0 13.333c-2.76 0-5-2.39-5-5.333 0-2.944 2.24-5.333 5-5.333S16 5.056 16 8c0 2.944-2.24 5.333-5 5.333z"/>
  </g>
</symbol></svg>